…
Observations are at the level of items in orders by user. There are user
/ order variables – user ID, order ID, order day, and order hour. There
are also item variables – name, aisle, department, and some numeric
codes.

How many aisles, and which are most items from?

``` r
instacart %>% 
  count(aisle) %>% 
  arrange(desc(n))
```

    ## # A tibble: 134 x 2
    ##    aisle                              n
    ##    <chr>                          <int>
    ##  1 fresh vegetables              150609
    ##  2 fresh fruits                  150473
    ##  3 packaged vegetables fruits     78493
    ##  4 yogurt                         55240
    ##  5 packaged cheese                41699
    ##  6 water seltzer sparkling water  36617
    ##  7 milk                           32644
    ##  8 chips pretzels                 31269
    ##  9 soy lactosefree                26240
    ## 10 bread                          23635
    ## # ... with 124 more rows
…
    ## Parsed with column specification:
    ## cols(
    ##   .default = col_double(),
    ##   day = col_character()
    ## )

    ## See spec(...) for full column specifications.

``` r
accel_df
```

    ## # A tibble: 50,400 x 6
    ##     week day_id day    weekday_weekend minute activity_count
    ##    <dbl>  <dbl> <fct>  <fct>            <dbl>          <dbl>
    ##  1     1      2 Monday weekday              1              1
    ##  2     1      2 Monday weekday              2              1
    ##  3     1      2 Monday weekday              3              1
    ##  4     1      2 Monday weekday              4              1
    ##  5     1      2 Monday weekday              5              1
    ##  6     1      2 Monday weekday              6              1
    ##  7     1      2 Monday weekday              7              1
    ##  8     1      2 Monday weekday              8              1
    ##  9     1      2 Monday weekday              9              1
    ## 10     1      2 Monday weekday             10              1
    ## # ... with 50,390 more rows
…
count(ny_noaa_df, snow) %>% 
  arrange(-n)
```

    ## # A tibble: 282 x 2
    ##     snow       n
    ##    <int>   <int>
    ##  1     0 2008508
    ##  2    NA  381221
    ##  3    25   31022
    ##  4    13   23095
    ##  5    51   18274
    ##  6    76   10173
    ##  7     8    9962
    ##  8     5    9748
    ##  9    38    9197
    ## 10     3    8790
    ## # ... with 272 more rows
…
